[
         {
                  "y": 4,
                  "label": "RN ten Doeschate"
         },
         {
                  "y": 4.14,
                  "label": "J Yadav"
         },
         {
                  "y": 5.45,
                  "label": "V Kohli"
         },
         {
                  "y": 5.87,
                  "label": "R Ashwin"
         },
         {
                  "y": 6.14,
                  "label": "S Nadeem"
         },
         {
                  "y": 6.2,
                  "label": "Parvez Rasool"
         },
         {
                  "y": 6.56,
                  "label": "MC Henriques"
         },
         {
                  "y": 6.58,
                  "label": "Z Khan"
         },
         {
                  "y": 7,
                  "label": "M Vijay"
         },
         {
                  "y": 7.05,
                  "label": "GB Hogg"
         }
]