[
         {
                  "y": 108,
                  "label": "Rising Pune Supergiants"
         },
         {
                  "y": 102,
                  "label": "Mumbai Indians"
         },
         {
                  "y": 122,
                  "label": "Kolkata Knight Riders"
         },
         {
                  "y": 106,
                  "label": "Delhi Daredevils"
         },
         {
                  "y": 98,
                  "label": "Gujarat Lions"
         },
         {
                  "y": 100,
                  "label": "Kings XI Punjab"
         },
         {
                  "y": 107,
                  "label": "Sunrisers Hyderabad"
         },
         {
                  "y": 156,
                  "label": "Royal Challengers Bangalore"
         }
]