[
         {
                  "y": 170,
                  "label": "SL Malinga"
         },
         {
                  "y": 142,
                  "label": "A Mishra"
         },
         {
                  "y": 137,
                  "label": "DJ Bravo"
         },
         {
                  "y": 136,
                  "label": "Harbhajan Singh"
         },
         {
                  "y": 133,
                  "label": "PP Chawla"
         },
         {
                  "y": 125,
                  "label": "R Vinay Kumar"
         },
         {
                  "y": 121,
                  "label": "A Nehra"
         },
         {
                  "y": 119,
                  "label": "Z Khan"
         },
         {
                  "y": 117,
                  "label": "B Kumar"
         },
         {
                  "y": 110,
                  "label": "R Ashwin"
         }
]